simulation/qsim/testealu1.msim.vcd
$comment
	File created using the following command:
		vcd file testealu1.msim.vcd -direction
$end
$date
	Tue Jan 11 20:42:50 2022
$end
$version
	ModelSim Version 2020.1
$end
$timescale
	1ps
$end

$scope module testealu1_vlg_vec_tst $end
$var reg 4 ! A [3:0] $end
$var reg 4 " B [3:0] $end
$var reg 3 # selection [2:0] $end
$var wire 1 $ carry_out $end
$var wire 1 % negativo $end
$var wire 1 & O [3] $end
$var wire 1 ' O [2] $end
$var wire 1 ( O [1] $end
$var wire 1 ) O [0] $end
$var wire 1 * overflow $end
$var wire 1 + zero $end

$scope module i1 $end
$var wire 1 , gnd $end
$var wire 1 - vcc $end
$var wire 1 . unknown $end
$var tri1 1 / devclrn $end
$var tri1 1 0 devpor $end
$var tri1 1 1 devoe $end
$var wire 1 2 O[0]~output_o $end
$var wire 1 3 O[1]~output_o $end
$var wire 1 4 O[2]~output_o $end
$var wire 1 5 O[3]~output_o $end
$var wire 1 6 carry_out~output_o $end
$var wire 1 7 overflow~output_o $end
$var wire 1 8 negativo~output_o $end
$var wire 1 9 zero~output_o $end
$var wire 1 : A[0]~input_o $end
$var wire 1 ; selection[0]~input_o $end
$var wire 1 < B[0]~input_o $end
$var wire 1 = Add1~0_combout $end
$var wire 1 > Add2~0_combout $end
$var wire 1 ? A[2]~input_o $end
$var wire 1 @ A[1]~input_o $end
$var wire 1 A B[1]~input_o $end
$var wire 1 B LessThan0~0_combout $end
$var wire 1 C B[2]~input_o $end
$var wire 1 D LessThan0~1_combout $end
$var wire 1 E B[3]~input_o $end
$var wire 1 F A[3]~input_o $end
$var wire 1 G LessThan0~2_combout $end
$var wire 1 H O~0_combout $end
$var wire 1 I selection[2]~input_o $end
$var wire 1 J Add0~0_combout $end
$var wire 1 K selection[1]~input_o $end
$var wire 1 L Mux10~0_combout $end
$var wire 1 M Mux10~0clkctrl_outclk $end
$var wire 1 N Mux4~1_combout $end
$var wire 1 O Mux4~2_combout $end
$var wire 1 P Mux4~0_combout $end
$var wire 1 Q Mux4~3_combout $end
$var wire 1 R Add2~1 $end
$var wire 1 S Add2~2_combout $end
$var wire 1 T Mux3~1_combout $end
$var wire 1 U Mux3~0_combout $end
$var wire 1 V Add0~1 $end
$var wire 1 W Add0~2_combout $end
$var wire 1 X Mux3~2_combout $end
$var wire 1 Y Add1~1 $end
$var wire 1 Z Add1~2_combout $end
$var wire 1 [ Mux3~3_combout $end
$var wire 1 \ Add3~0_combout $end
$var wire 1 ] Add3~1_combout $end
$var wire 1 ^ Mux3~5_combout $end
$var wire 1 _ Mux3~4_combout $end
$var wire 1 ` Mux3~7_combout $end
$var wire 1 a Mux3~6_combout $end
$var wire 1 b Mux3~8_combout $end
$var wire 1 c Add3~2_combout $end
$var wire 1 d Add3~3_combout $end
$var wire 1 e O~1_combout $end
$var wire 1 f Add1~3 $end
$var wire 1 g Add1~4_combout $end
$var wire 1 h Add0~3 $end
$var wire 1 i Add0~4_combout $end
$var wire 1 j O~2_combout $end
$var wire 1 k Mux2~0_combout $end
$var wire 1 l Add2~3 $end
$var wire 1 m Add2~4_combout $end
$var wire 1 n Mux2~1_combout $end
$var wire 1 o Mux2~2_combout $end
$var wire 1 p Mux2~3_combout $end
$var wire 1 q Add0~5 $end
$var wire 1 r Add0~6_combout $end
$var wire 1 s Add2~5 $end
$var wire 1 t Add2~6_combout $end
$var wire 1 u Mux1~0_combout $end
$var wire 1 v Add1~5 $end
$var wire 1 w Add1~6_combout $end
$var wire 1 x O~4_combout $end
$var wire 1 y Mux1~1_combout $end
$var wire 1 z Mux1~2_combout $end
$var wire 1 { O~3_combout $end
$var wire 1 | Add3~4_combout $end
$var wire 1 } Add3~5_combout $end
$var wire 1 ~ Mux1~3_combout $end
$var wire 1 !! Add0~7 $end
$var wire 1 "! Add0~8_combout $end
$var wire 1 #! Mux5~0_combout $end
$var wire 1 $! result [4] $end
$var wire 1 %! result [3] $end
$var wire 1 &! result [2] $end
$var wire 1 '! result [1] $end
$var wire 1 (! result [0] $end
$upscope $end
$upscope $end
$enddefinitions $end
#0
$dumpvars
b1001 !
b0 "
b0 #
0$
0%
1)
0(
0'
1&
0*
0+
0,
1-
x.
1/
10
11
12
03
04
15
06
07
08
09
1:
0;
0<
1=
1>
0?
0@
0A
0B
0C
0D
0E
1F
0G
1H
0I
1J
0K
1L
1M
1N
1O
1P
1Q
0R
1S
0T
0U
0V
0W
0X
1Y
0Z
0[
0\
1]
0^
0_
0`
0a
0b
1c
1d
0e
0f
0g
1h
0i
0j
0k
1l
1m
0n
0o
0p
0q
1r
0s
0t
1u
1v
1w
0x
1y
1z
1{
0|
0}
1~
1!!
0"!
0#!
1(!
0'!
0&!
1%!
0$!
$end
#5000
b1 #
1;
1|
0c
0]
1\
1U
1T
0P
0L
0M
1}
0d
1k
1[
1X
1n
0n
1o
0o
1p
14
1'
0p
04
0'
#10000
b11 #
b10 #
0;
1K
0|
1c
1_
1]
0\
0U
0T
1P
1a
1^
0Q
02
0}
1d
1o
0a
1`
0k
0[
0X
1n
0)
1Q
12
0n
1)
0~
1p
1b
13
14
05
0&
1'
1(
#15000
b11 #
1;
1|
0c
0]
1\
1U
1T
0P
1}
0d
1k
1[
1X
1n
0Q
02
0n
0)
1~
0p
04
15
1&
0'
#20000
b111 #
b101 #
b100 #
0;
0K
1I
0|
0_
0\
0T
1P
0N
0z
0o
0^
1Q
12
0}
1z
0`
0u
1n
0k
0X
0O
1)
0~
05
0y
1o
0n
0&
1~
0b
0Q
02
03
15
0z
0o
1&
0(
0)
1p
14
1'
0~
0p
04
05
0&
0'
#25000
b101 #
1;
1_
1N
1a
1O
1~
15
1&
1Q
12
1)
#30000
b111 #
b110 #
0;
1K
0_
0N
1z
1o
1#!
18
0o
0O
1%
1p
14
1'
0p
04
0'
#35000
b111 #
1;
1_
1N
0#!
08
1o
1O
0%
0~
05
0&
#40000
b1 "
b11 #
b1 #
b0 #
0;
0K
0I
1<
1c
0_
1]
0U
1L
0z
0o
1V
0J
1R
0>
0=
1M
1d
0a
1u
0[
1W
0(!
0l
0S
0H
1y
1'!
0N
1s
0m
1z
1X
0O
1t
1~
1b
0Q
02
13
15
1&
1(
0)
#45000
b1 #
1;
1|
0c
0]
1\
1U
1T
0P
0L
0M
1}
0d
1k
1[
0b
03
0(
#50000
b11 #
b10 #
0;
1K
0|
1c
1_
1]
0\
0U
0T
1P
1a
1^
0}
1d
1o
0a
1`
0k
0[
1n
1Q
12
0n
1)
0~
1p
1b
13
14
05
0&
1'
1(
#55000
b11 #
1;
1|
0c
0]
1\
1U
1T
0P
1}
0d
1k
1[
0Q
02
0)
1~
0p
04
15
1&
0'
#60000
b111 #
b101 #
b100 #
0;
0K
1I
0|
0_
0T
1P
0z
0o
0^
1O
0}
1z
0`
0u
1n
0k
0X
0~
1Q
12
05
0y
1o
0n
0&
1)
1~
0b
03
15
0z
0o
1&
0(
1p
14
1'
0~
0p
04
05
0&
0'
#65000
b101 #
1;
1_
0P
1N
1a
1~
15
1&
#70000
b111 #
b110 #
0;
1K
0_
1P
0N
1z
1o
1^
1#!
0Q
02
18
0o
1%
0)
1p
1Q
12
14
1'
1)
0p
04
0'
#75000
b111 #
1;
1_
0P
1N
0#!
08
1o
0a
1`
0%
0~
0Q
02
05
0&
0)
1b
13
1(
#80000
b11 "
b10 "
b11 #
b1 #
b0 #
0;
0K
0I
0<
1A
1c
0_
1]
0\
0U
1P
0N
1L
0z
0o
0V
1J
1B
0R
1>
1=
1f
1Z
0h
0W
1S
1M
1Q
12
1d
0`
1u
0[
1X
0O
1h
1W
1(!
1D
0S
1H
0v
1g
1i
0'!
1)
1y
0i
1'!
1N
0X
0w
1&!
0Q
02
1z
0&!
1X
1O
1k
0)
0b
03
0k
1n
0(
1~
1b
1Q
12
13
15
0n
1o
1&
1(
1)
0o
1p
14
1'
0p
04
0'
#85000
b1 #
1;
1|
0c
0]
1\
1U
1T
0P
0L
0M
1}
0d
0y
1k
0z
1n
1o
0~
05
0&
1p
14
1'
#90000
b11 #
b10 #
0;
1K
0|
1c
1_
1]
0\
0U
0T
1P
1z
0o
1a
0Q
02
0}
1d
1o
0a
1`
1y
0k
0)
1~
0p
1Q
0b
03
12
04
15
0n
1&
0'
1)
0(
0~
1p
1b
13
14
05
0&
1'
1(
#95000
b11 #
1;
1|
0c
0]
1\
1U
1T
0P
1}
0d
0y
1k
0Q
02
1n
0)
1~
0p
04
15
1&
0'
#100000
b111 #
b101 #
b100 #
0;
0K
1I
0|
0_
1]
0\
0T
1P
0N
0z
0o
1Q
12
0}
1o
0`
0u
0k
0X
0O
1)
0~
05
0n
1[
0&
1p
0b
0Q
02
03
14
0o
1'
0(
0)
0p
04
0'
#105000
b101 #
1;
1_
1N
1`
1O
1~
15
1&
1b
1Q
12
13
1(
1)
#110000
b111 #
b110 #
0;
1K
0_
0N
1z
1o
1#!
18
0o
1a
0`
0O
1%
1p
14
1'
0p
0b
03
04
0'
0(
#115000
b111 #
1;
1_
1N
0#!
08
1o
0a
1`
1O
0%
0~
05
0&
1b
13
1(
#120000
b11 "
b11 #
b1 #
b0 #
0;
0K
0I
1<
1c
0_
0U
1L
0z
0o
1V
0J
1R
0>
0=
1M
1d
0`
1u
0[
1X
0h
0W
0(!
1S
0H
1y
1i
0'!
0N
1z
1&!
0X
0O
1k
1~
0b
0Q
02
03
15
1n
1&
0(
0)
1o
1p
14
1'
#125000
b1 #
1;
1|
0c
0]
1\
1U
1T
0P
0L
0M
1}
0d
0y
1[
1X
0z
0[
0~
1b
13
05
0&
1(
#130000
b11 #
b10 #
0;
1K
0|
1c
1_
1]
0\
0U
0T
1P
1z
0o
1a
0}
1d
1o
0a
1`
1y
0X
1~
0p
1Q
0b
03
12
04
15
1&
0'
1)
0(
0~
1p
1b
13
14
05
0&
1'
1(
#135000
b11 #
1;
1|
0c
0]
1\
1U
1T
0P
1}
0d
0y
1[
1X
0Q
02
0[
0)
1~
0p
04
15
1&
0'
#140000
b111 #
b101 #
b100 #
0;
0K
1I
0|
0_
1]
0T
1P
0z
0o
1O
0}
1o
0`
1d
0u
0k
0X
0~
1Q
12
05
0n
1[
0&
1)
1p
0b
03
14
0o
1'
0(
0p
04
0'
#145000
b101 #
1;
1_
0P
1N
1`
1~
15
1&
1b
13
1(
#150000
b111 #
b110 #
0;
1K
0_
1P
0N
1z
1o
0^
1#!
0Q
02
18
0o
1a
0`
1%
0)
1p
1Q
12
14
1'
1)
0p
0b
03
04
0'
0(
#155000
b111 #
1;
1_
0P
1N
0#!
08
1o
0%
0~
0Q
02
05
0&
0)
1p
14
1'
#160000
b111 "
b101 "
b100 "
b11 #
b1 #
b0 #
0;
0K
0I
0<
0A
1C
1c
0_
0\
0U
1P
0N
1L
0z
0o
0V
1J
0B
0R
1>
1=
0f
0Z
1h
1W
0S
1m
1q
0i
0g
1e
1M
1Q
12
0a
1u
1k
0[
0O
0W
1(!
1l
1S
1H
1g
0q
1i
1'!
0!!
0r
0&!
1)
0p
04
1y
1n
0'!
1N
0m
1X
1!!
1r
1&!
1"!
0%!
0k
0'
0Q
02
1z
1o
0X
1O
0n
0"!
1%!
1k
0u
0)
1b
1$!
16
13
0o
1u
1n
0y
1(
1$
1~
1p
0b
1Q
0$!
06
12
03
14
15
1y
1o
0z
1&
1'
0(
1)
0$
0p
04
1z
0'
1p
0~
05
14
1'
0&
1~
15
1&
#165000
b1 #
1;
1|
0c
0]
1\
1U
1T
0P
0L
0M
1}
0d
0y
1[
1X
0z
0~
05
0&
#170000
b11 #
b10 #
0;
1K
0|
1c
1_
1]
0\
0U
0T
1P
1z
0o
1a
1^
0Q
02
0}
1d
1o
0a
1`
1y
0[
0X
0)
1~
1Q
12
15
1&
1)
0~
1b
13
05
0&
1(
#175000
b11 #
1;
1|
0c
0]
1\
1U
1T
0P
1}
0d
0y
1[
1X
0Q
02
0)
1~
0p
04
15
1&
0'
#180000
b111 #
b101 #
b100 #
0;
0K
1I
0|
1c
0_
0\
0T
1P
0N
0z
0o
0^
1Q
12
0}
1d
1o
0`
0u
0k
0X
0O
1)
0~
05
0n
0&
1p
0b
0Q
02
03
14
0o
1'
0(
0)
0p
04
0'
#185000
b101 #
1;
1_
1N
1a
1O
1~
1p
14
15
1&
1'
1Q
12
1)
#190000
b111 #
b110 #
0;
1K
0_
0N
1z
1o
1#!
18
0o
0O
1%
0p
04
0'
#195000
b111 #
1;
1_
1N
0#!
08
1o
1O
0%
0~
1p
14
05
0&
1'
#200000
b101 "
b11 #
b1 #
b0 #
0;
0K
0I
1<
0_
1]
0U
1L
0z
0o
1V
0J
1R
0>
0=
1M
0a
1u
1k
0[
1W
0(!
0l
0S
0H
0p
04
1y
1n
1'!
0N
1m
0'
1z
1o
1X
0O
1~
1p
1b
0Q
02
13
14
15
1&
1'
1(
0)
#205000
b1 #
1;
1|
0c
0]
1\
1U
1T
0P
0L
0M
1}
0d
0y
1[
0z
0b
03
0(
0~
05
0&
#210000
b11 #
b10 #
0;
1K
0|
1c
1_
1]
0\
0U
0T
1P
1z
0o
1a
1^
0}
1d
1o
0a
1`
1y
0[
1~
1Q
12
15
1&
1)
0~
1b
13
05
0&
1(
#215000
b11 #
1;
1|
0c
0]
1\
1U
1T
0P
1}
0d
0y
1[
0Q
02
0)
1~
0p
04
15
1&
0'
#220000
b111 #
b101 #
b100 #
0;
0K
1I
0|
1c
0_
0T
1P
0z
0o
0^
1O
0}
1d
1o
0`
0u
0k
0X
0~
1Q
12
05
0n
0&
1)
1p
0b
03
14
0o
1'
0(
0p
04
0'
#225000
b101 #
1;
1_
0P
1N
1a
1~
1p
14
15
1&
1'
#230000
b111 #
b110 #
0;
1K
0_
1P
0N
1z
1o
1^
1#!
0Q
02
18
0o
1%
0)
1Q
12
1)
0p
04
0'
#235000
b111 #
1;
1_
0P
1N
0#!
08
1o
0a
1`
0%
0~
1p
0Q
02
14
05
0&
1'
0)
1b
13
1(
#240000
b111 "
b110 "
b11 #
b1 #
b0 #
0;
0K
0I
0<
1A
0_
1]
0\
0U
1P
0N
1L
0z
0o
0V
1J
1B
0R
1>
1=
1f
1Z
0h
0W
1S
1M
1Q
12
0`
1u
1k
0[
1X
0O
1h
1W
1(!
0S
1H
0g
1q
0i
0'!
1)
0p
04
1y
1n
0q
1i
1'!
1N
0X
0!!
0r
0&!
0'
0Q
02
1z
1o
1!!
1r
1&!
1X
1O
1"!
0%!
0k
0)
0b
03
0"!
1%!
1k
0u
0n
0(
1~
1p
1b
1Q
1$!
16
12
13
14
15
1u
1n
0y
0o
1&
1'
1(
1)
1$
0$!
06
1y
1o
0z
0$
0p
04
1z
0'
1p
0~
05
14
1'
0&
1~
15
1&
#245000
b1 #
1;
1|
0c
0]
1\
1U
1T
0P
0L
0M
1}
0d
0y
0n
0z
0o
0~
0p
04
05
0&
0'
#250000
b11 #
b10 #
0;
1K
0|
1c
1_
1]
0\
0U
0T
1P
1z
1a
0Q
02
0}
1d
1o
0a
1`
1y
1n
0)
1~
1p
1Q
0b
03
12
14
15
1&
1'
1)
0(
0~
1b
13
05
0&
1(
#255000
b11 #
1;
1|
0c
0]
1\
1U
1T
0P
1}
0d
0y
0n
0Q
02
0)
1~
0p
04
15
1&
0'
#260000
b111 #
b101 #
b100 #
0;
0K
1I
0|
1c
0_
1]
0\
0T
1P
0N
0z
0o
1Q
12
0}
1d
0`
0u
1n
0k
0X
0O
1)
0~
05
1o
0n
1[
0&
0b
0Q
02
03
0o
0(
0)
1p
14
1'
0p
04
0'
#265000
b101 #
1;
1_
1N
1`
1O
1~
1p
14
15
1&
1'
1b
1Q
12
13
1(
1)
#270000
b111 #
b110 #
0;
1K
0_
0N
1z
1o
1#!
18
0o
1a
0`
0O
1%
0p
0b
03
04
0'
0(
#275000
b111 #
1;
1_
1N
0#!
08
1o
0a
1`
1O
0%
0~
1p
14
05
0&
1'
1b
13
1(
#280000
b111 "
b11 #
b1 #
b0 #
0;
0K
0I
1<
0_
0U
1L
0z
0o
1V
0J
1R
0>
0=
1M
0`
1u
1k
0[
1X
0h
0W
0(!
1S
0H
0p
04
1y
1n
1q
0i
0'!
0N
0'
1z
1o
0!!
0r
0&!
0X
0O
1"!
0%!
0k
1~
1p
0b
0Q
02
03
14
15
0u
0n
1&
1'
0(
0)
1$!
16
0y
0o
1$
0z
0p
04
0'
0~
05
0&
#285000
b1 #
1;
1|
0c
0]
1\
1U
1T
0P
0L
0M
1}
0d
1u
1k
1[
1X
1n
0n
0[
1o
0o
1b
1p
14
13
1(
1'
0p
04
0'
#290000
b11 #
b10 #
0;
1K
0|
1c
1_
1]
0\
0U
0T
1P
1z
1a
0}
1d
1o
0a
1`
1y
0u
0k
0X
1n
1~
1p
1Q
0b
03
12
14
15
0y
0n
1&
1'
1)
0(
0~
1b
13
05
0&
1(
#295000
b11 #
1;
1|
0c
0]
1\
1U
1T
0P
1}
0d
1u
1k
1[
1X
1n
0Q
02
0n
0[
0)
1~
0p
04
15
1&
0'
#300000
b111 #
b101 #
b100 #
0;
0K
1I
0|
1c
0_
1]
0T
1P
0z
0o
1O
0`
0u
1n
0k
0X
0~
1Q
12
05
1o
0n
1[
0&
1)
0b
03
0o
0(
1p
14
1'
0p
04
0'
#305000
b101 #
1;
1_
0P
1N
1`
1~
1p
14
15
1&
1'
1b
13
1(
#310000
b111 #
b110 #
0;
1K
0_
1P
0N
1z
1o
0^
1#!
0Q
02
18
0o
1a
0`
1%
0)
1Q
12
1)
0p
0b
03
04
0'
0(
#315000
b111 #
1;
1_
0P
1N
0#!
08
1o
0%
1p
0Q
02
14
1'
0)
0p
04
0'
#320000
b1111 "
b1011 "
b1001 "
b1000 "
b11 #
b1 #
b0 #
0;
0K
0I
0<
0A
0C
1E
0_
0\
0U
1P
0N
1L
0z
0o
0V
1J
0B
0R
1>
1=
0f
0Z
1h
1W
0S
0m
0q
1i
1g
0e
1x
1w
0t
1r
1G
1M
1Q
12
0a
0}
1d
0[
0O
0W
1(!
0D
1l
1S
1H
1v
0g
0i
1'!
0r
1&!
1%!
1)
0~
05
0'!
1N
0G
0s
1m
1X
0w
0&!
0%!
1k
1u
0&
0Q
02
0X
1O
1t
1n
1y
0k
0u
0)
1b
13
1o
1z
0n
0y
1(
0b
1Q
12
03
0o
0z
0(
1)
1p
1~
15
14
1'
1&
0p
0~
05
04
0'
0&
#325000
b1 #
1;
1|
0c
0]
1\
1U
1T
0P
0L
0M
1}
0d
1y
1u
1k
1[
1X
1n
1z
0y
0n
1o
0z
0o
1~
1p
14
15
1&
1'
0~
0p
04
05
0&
0'
#330000
b11 #
b10 #
0;
1K
0|
1c
1_
1]
0\
0U
0T
1P
1z
1a
1^
0Q
02
0}
1d
1o
0a
1`
1y
0u
0k
0[
0X
1n
0)
1~
1Q
12
15
0y
0n
1&
1)
0~
1p
1b
13
14
05
0&
1'
1(
#335000
b11 #
1;
1|
0c
0]
1\
1U
1T
0P
1}
0d
1y
1u
1k
1[
1X
1n
0Q
02
0y
0n
0)
1~
0p
04
15
1&
0'
#340000
b111 #
b101 #
b100 #
0;
0K
1I
0_
0\
0T
1P
0N
0z
0o
0^
1Q
12
0`
0u
1n
0k
0X
0O
1)
0~
05
1y
1o
0n
0&
0b
0Q
02
03
1z
0o
0(
0)
1p
14
1'
1~
0p
04
15
1&
0'
#345000
b101 #
1;
1_
1N
0z
1a
1O
1Q
12
1)
#350000
b111 #
b110 #
0;
1K
0_
0N
1z
1o
1#!
18
0o
0O
1%
1p
14
1'
0p
04
0'
#355000
b111 #
1;
1_
1N
0#!
08
1o
1O
0%
#360000
b1001 "
b11 #
b1 #
b0 #
0;
0K
0I
1<
0|
1c
0_
1]
0U
1L
0z
0o
1V
0J
1R
0>
0=
1M
0}
1d
1z
0a
0y
0[
1W
0(!
0l
0S
0H
0~
05
0z
1'!
0N
1s
0m
0&
1~
15
1X
0O
0t
1&
0~
05
0&
1b
0Q
02
13
1(
0)
#365000
b1 #
1;
1|
0c
0]
1\
1U
1T
0P
0L
0M
1}
0d
1y
1u
1k
1[
1z
0y
0b
03
0z
0(
1~
15
1&
0~
05
0&
#370000
b11 #
b10 #
0;
1K
0|
1c
1_
1]
0\
0U
0T
1P
1z
1a
1^
0}
1d
1o
0a
1`
1y
0u
0k
0[
1n
1~
1Q
12
15
0y
0n
1&
1)
0~
1p
1b
13
14
05
0&
1'
1(
#375000
b11 #
1;
1|
0c
0]
1\
1U
1T
0P
1}
0d
1y
1u
1k
1[
0Q
02
0y
0)
1~
0p
04
15
1&
0'
#380000
b111 #
b101 #
b100 #
0;
0K
1I
0_
0T
1P
0z
0o
0^
1O
0`
0u
1n
0k
0X
0~
1Q
12
05
1y
1o
0n
0&
1)
0b
03
1z
0o
0(
1p
14
1'
1~
0p
04
15
1&
0'
#385000
b101 #
1;
1_
0P
1N
0z
1a
#390000
b111 #
b110 #
0;
1K
0_
1P
0N
1z
1o
1^
1#!
0Q
02
18
0o
1%
0)
1p
1Q
12
14
1'
1)
0p
04
0'
#395000
b111 #
1;
1_
0P
1N
0#!
08
1o
0a
1`
0%
0Q
02
0)
1b
13
1(
#400000
b1011 "
b1010 "
b11 #
b1 #
b0 #
0;
0K
0I
0<
1A
0|
1c
0_
1]
0\
0U
1P
0N
1L
0z
0o
0V
1J
1B
0R
1>
1=
1f
1Z
0h
0W
1S
1M
1Q
12
0}
1d
1z
0`
0y
0[
1X
0O
1h
1W
1(!
1D
0S
1H
0v
1g
1i
0'!
1)
0~
05
0z
0i
1'!
1N
1G
0X
1w
1&!
0&
1~
0Q
02
15
0&!
1X
1O
1k
1&
0)
0~
0b
03
05
0k
1n
0&
0(
1b
1Q
12
13
0n
1o
1(
1)
0o
1p
14
1'
0p
04
0'
#405000
b1 #
1;
1|
0c
0]
1\
1T
0P
0L
0M
1#!
18
1}
0d
0X
1%
0b
03
0(
#410000
b11 #
b10 #
0;
1K
0|
1c
1_
1]
0\
0T
1P
1z
1a
0#!
0Q
02
08
0}
1d
1o
0a
1`
1X
0%
0)
1~
1Q
12
15
1&
1)
0~
1p
1b
13
14
05
0&
1'
1(
#415000
b11 #
1;
1|
0c
0]
1\
1T
0P
1}
0d
0X
0Q
02
0)
1~
0p
04
15
1&
0'
#420000
b111 #
b101 #
b100 #
0;
0K
1I
0_
1]
0\
1U
0T
1P
0N
0z
0o
1Q
12
0`
1y
1[
0O
1)
0~
05
1z
0&
0b
0Q
02
03
0(
0)
1~
15
1&
#425000
b101 #
1;
1_
1N
0z
1`
1O
1b
1Q
12
13
1(
1)
#430000
b111 #
b110 #
0;
1K
0_
0N
1z
1o
1#!
18
0o
1a
0`
0O
1%
1p
14
1'
0p
0b
03
04
0'
0(
#435000
b111 #
1;
1_
1N
0#!
08
1o
0a
1`
1O
0%
1b
13
1(
#440000
b1011 "
b11 #
b1 #
b0 #
0;
0K
0I
1<
0|
1c
0_
0U
1L
0z
0o
1V
0J
1R
0>
0=
1M
0}
1d
1z
0`
0y
0[
1X
0h
0W
0(!
1S
0H
0~
05
0z
1i
0'!
0N
0&
1~
15
1&!
0X
0O
1&
0~
05
1k
0&
0b
0Q
02
03
1n
0(
0)
1o
1p
14
1'
#445000
b1 #
1;
1|
0c
0]
1\
1T
0P
0L
0M
1#!
18
1}
0d
0k
1X
1%
0n
1b
13
0o
1(
0p
04
0'
#450000
b11 #
b10 #
0;
1K
0|
1c
1_
1]
0\
0T
1P
1z
1a
0#!
08
0}
1d
1o
0a
1`
1k
0X
0%
1~
1Q
0b
03
12
15
1n
1&
1)
0(
0~
1p
1b
13
14
05
0&
1'
1(
#455000
b11 #
1;
1|
0c
0]
1\
1T
0P
1}
0d
0k
1X
0Q
02
0n
0)
1~
0p
04
15
1&
0'
#460000
b111 #
b101 #
b100 #
0;
0K
1I
0_
1]
1U
0T
1P
0z
0o
1O
0`
1d
1y
0X
0~
1Q
12
05
1z
1[
0&
1)
0b
03
0(
1~
15
1&
#465000
b101 #
1;
1_
0P
1N
0z
1`
1b
13
1(
#470000
b111 #
b110 #
0;
1K
0_
1P
0N
1z
1o
0^
1#!
0Q
02
18
0o
1a
0`
1%
0)
1p
1Q
12
14
1'
1)
0p
0b
03
04
0'
0(
#475000
b111 #
1;
1_
0P
1N
0#!
08
1o
0%
0Q
02
0)
1p
14
1'
#480000
b1111 "
b1101 "
b1100 "
b11 #
b1 #
b0 #
0;
0K
0I
0<
0A
1C
0|
1c
0_
0\
0U
1P
0N
1L
0z
0o
0V
1J
0B
0R
1>
1=
0f
0Z
1h
1W
0S
1m
1q
0i
0g
1e
1M
1Q
12
0}
1z
0a
0y
1k
0[
0O
0W
1(!
1l
1S
1H
1g
0q
1i
1'!
1r
0&!
1)
0~
0p
04
05
0z
1n
0'!
1N
0m
1X
0r
1&!
1%!
0k
0&
0'
1~
0Q
02
15
1o
0X
1O
0n
0%!
1k
1u
1&
0)
0~
1b
13
05
0o
0u
1n
1y
0&
1(
1p
0b
1Q
12
03
14
0y
1o
1z
1'
0(
1)
0p
04
0z
0'
1p
1~
15
14
1'
1&
0~
05
0&
#485000
b1 #
1;
1|
0c
0]
1\
1T
0P
0L
0M
1#!
18
1}
0d
0k
1X
1%
0n
1b
13
0o
1(
0p
04
0'
#490000
b11 #
b10 #
0;
1K
0|
1c
1_
1]
0\
0T
1P
1z
1a
1^
0#!
0Q
02
08
0}
1d
1o
0a
1`
1k
0X
0%
0)
1~
1p
1Q
0b
03
12
14
15
1n
1&
1'
1)
0(
0~
1b
13
05
0&
1(
#495000
b11 #
1;
1|
0c
0]
1\
1T
0P
1}
0d
0k
1X
0Q
02
0n
0)
1~
0p
04
15
1&
0'
#500000
b111 #
b101 #
b100 #
0;
0K
1I
1c
0_
0\
1U
0T
1P
0N
0z
0o
0^
1Q
12
1d
0`
1y
1[
0X
0O
1)
0~
05
1z
0&
0b
0Q
02
03
0(
0)
1~
15
1&
#505000
b101 #
1;
1_
1N
0z
1a
1O
1p
14
1'
1Q
12
1)
#510000
b111 #
b110 #
0;
1K
0_
0N
1z
1o
1#!
18
0o
0O
1%
0p
04
0'
#515000
b111 #
1;
1_
1N
0#!
08
1o
1O
0%
1p
14
1'
#520000
b1101 "
b11 #
b1 #
b0 #
0;
0K
0I
1<
0|
0_
1]
0U
1L
0z
0o
1V
0J
1R
0>
0=
1M
0}
1z
0a
0y
1k
0[
1W
0(!
0l
0S
0H
0~
0p
04
05
0z
1n
1'!
0N
1m
0&
0'
1~
15
1o
1X
0O
1&
0~
05
0&
1p
1b
0Q
02
13
14
1'
1(
0)
#525000
b1 #
1;
1|
0c
0]
1\
1T
0P
0L
0M
1#!
18
1}
0d
0k
0X
1%
0b
03
0(
#530000
b11 #
b10 #
0;
1K
0|
1c
1_
1]
0\
0T
1P
1z
0o
1a
1^
0#!
08
0}
1d
1o
0a
1`
0n
1k
1X
0%
1~
1Q
12
15
1n
1&
1)
0~
1b
13
05
0&
1(
#535000
b11 #
1;
1|
0c
0]
1\
1T
0P
1}
0d
0k
0X
0Q
02
0)
1~
0p
04
15
1&
0'
#540000
b111 #
b101 #
b100 #
0;
0K
1I
1c
0_
1U
0T
1P
0z
0o
0^
1O
1d
1o
0`
1y
1[
0n
0~
1Q
12
05
1z
0o
0&
1)
1p
0b
03
14
1'
0(
1~
0p
04
15
1&
0'
#545000
b101 #
1;
1_
0P
1N
0z
1a
1p
14
1'
#550000
b111 #
b110 #
0;
1K
0_
1P
0N
1z
1o
1^
1#!
0Q
02
18
0o
1%
0)
1Q
12
1)
0p
04
0'
#555000
b111 #
1;
1_
0P
1N
0#!
08
1o
0a
1`
0%
1p
0Q
02
14
1'
0)
1b
13
1(
#560000
b1111 "
b1110 "
b11 #
b1 #
b0 #
0;
0K
0I
0<
1A
0|
0_
1]
0\
0U
1P
0N
1L
0z
0o
0V
1J
1B
0R
1>
1=
1f
1Z
0h
0W
1S
1M
1Q
12
0}
1z
0`
0y
1k
0[
1X
0O
1h
1W
1(!
0S
1H
0g
1q
0i
0'!
1)
0~
0p
04
05
0z
1n
0q
1i
1'!
1N
0X
1r
0&!
0&
0'
1~
0Q
02
15
1o
0r
1&!
1X
1O
1%!
0k
1&
0)
0~
0b
03
05
0%!
1k
1u
0n
0&
0(
1p
1b
1Q
12
13
14
0u
1n
1y
0o
1'
1(
1)
0y
1o
1z
0p
04
0z
0'
1p
1~
15
14
1'
1&
0~
05
0&
#565000
b1 #
1;
1|
0c
0]
1\
1T
0P
0L
0M
1#!
18
1}
0d
0n
0k
0X
1%
0o
1n
0b
03
1o
0(
0p
04
0'
1p
14
1'
#570000
b11 #
b10 #
0;
1K
0|
1c
1_
1]
0\
0T
1P
1z
0o
1a
0#!
0Q
02
08
0}
1d
1o
0a
1`
0n
1k
1X
0%
0)
1~
1Q
12
15
1n
1&
1)
0~
1b
13
05
0&
1(
#575000
b11 #
1;
1|
0c
0]
1\
1T
0P
1}
0d
0n
0k
0X
0Q
02
1n
0)
1~
0p
04
15
1&
0'
#580000
b111 #
b101 #
b100 #
0;
0K
1I
1c
0_
1]
0\
1U
0T
1P
0N
0z
0o
1Q
12
1d
1o
0`
1y
1[
0n
0O
1)
0~
05
1z
0o
0&
1p
0b
0Q
02
03
14
1'
0(
0)
1~
0p
04
15
1&
0'
#585000
b101 #
1;
1_
1N
0z
1`
1O
1p
14
1'
1b
1Q
12
13
1(
1)
#590000
b111 #
b110 #
0;
1K
0_
0N
1z
1o
1#!
18
0o
1a
0`
0O
1%
0p
0b
03
04
0'
0(
#595000
b111 #
1;
1_
1N
0#!
08
1o
0a
1`
1O
0%
1p
14
1'
1b
13
1(
